{
    "f1": [
        0.8767241379310345,
        0.9189801699716715
    ],
    "precision": [
        0.8560606060606061,
        0.9337938975244675
    ],
    "recall": [
        0.8984098939929329,
        0.9046291132180703
    ]
}